468050 65346 449
52221 952608 525
634380 546547 509
152137 874115 525
41642 462028 449
133920 749066 509
45654 282474 443
740944 481046 509
765231 376549 509
593006 148362 470
644317 798261 504
514067 456201 470
201894 920998 525
932822 868490 476
219330 104545 386
142153 618772 470
334840 658579 509
801464 140202 509
762905 248896 509
695198 858698 525
665873 941252 525
407896 525175 470
197928 773396 509
867433 483379 525
861034 695373 525
133141 437615 449
868787 359652 525
42623 497804 449
870414 508471 525
474204 347633 449
81677 375917 443
888910 762841 525
726264 321981 509
700970 205695 509
872813 372636 525
51097 583018 470
285816 280317 376
184624 336042 443
828990 186042 509
504780 364962 449
610513 96357 470
669570 785923 504
328599 595503 470
997112 170663 525
773868 374491 509
162810 898028 525
995999 549025 525
9428 506837 449
131155 366633 443
21285 512664 470
325656 390285 441
46016 716727 509
126428 806823 509
316947 842884 525
271632 295573 389
595020 395443 470
307591 420827 449
618881 453752 470
484865 746275 509
566862 571797 377
302228 651434 509
890551 158086 525
978844 766812 525
18417 638816 509
338520 623357 470
186309 778123 509
552420 554649 421
752746 678744 504
857272 879001 432
378229 10189 443
967959 353269 525
577431 202491 470
998384 3050 525
895502 936402 476
997516 477603 525
429017 596593 470
848249 536168 525
272761 670680 509
985702 909076 507
323876 959429 525
886398 275832 525
677025 630739 442
938796 636850 525
133579 380889 443
781406 338186 509
527654 78053 470
842601 10665 525
479997 863302 525
362290 896291 525
509927 325702 449
195433 621187 470
347395 377764 423
147591 560665 470
641340 430193 509
955735 523219 525
840548 794231 525
886757 725831 525
125832 628802 509
35932 240592 443
977709 137437 525
118310 298381 443
730358 947289 525
23659 593161 470
1554 742121 509
345123 538956 470
203884 582952 470
307464 75967 443
492049 576434 470
36452 67571 340
115965 383307 443
482329 667353 509
12423 371756 443
925352 206387 525
294029 521083 470
153161 86817 375
505650 986622 525
759497 545107 509
838087 568986 525
39327 356769 443
473341 82839 449
808980 589710 509
950033 918251 507
81009 671963 509
690417 230627 509
559217 457048 470
126921 837829 525
780993 852259 525
415181 816749 509
982127 333212 525
694550 474871 509
38027 213669 383
287885 485157 449
396190 997237 525
203865 346957 443
362597 430914 449
455200 809166 509
676940 745239 504
65088 894731 525
840764 370652 525
118343 574971 470
496917 193430 449
538026 968483 525
640628 528121 509
239212 778082 509
843446 138421 525
728346 154120 509
51539 750193 509
2029 9320 262
717285 375522 509
358584 196705 443
807156 16997 509
756774 501149 509
733338 788788 468
260165 659561 509
610894 330279 470
614815 765574 509
856032 194290 525
856275 468159 525
165593 552285 470
258135 469107 449
719 674124 509
82265 830090 509
287131 109990 443
592661 824324 509
123245 261402 443
339099 720489 509
604311 137113 470
22764 116522 354
15764 422373 449
509571 187069 449
533291 435661 470
976445 316627 525
616379 321970 470
155454 201974 383
594853 936279 525
329745 17672 443
353137 596383 470
155685 509134 449
542757 902743 525
163763 565368 470
595881 493877 470
861024 704329 525
728706 794223 468
25212 302250 443
659102 473199 509
847735 805901 525
485560 965056 525
95127 297662 443
44629 548917 470
561662 796782 509
99399 878996 525
900792 867935 445
273827 419188 449
722602 496183 509
405468 900312 525
293898 398513 441
427506 893319 525
650174 911963 525
521239 242477 470
195934 398171 443
521137 871363 525
460190 748918 509
698734 835253 504
658517 534115 509
202106 924862 525
870713 905213 445
536883 371498 470
277196 185601 443
569837 736350 509
964952 610013 525
495556 367712 449
335005 930558 525
763725 758258 380
66627 724864 509
284859 743466 509
772168 838810 525
467296 185208 449
541016 571807 452
436280 186886 449
744137 871415 525
2522 175347 383
803090 454615 509
662617 35570 509
307462 282366 389
495391 138488 449
580468 999312 525
56362 96753 351
447682 241124 449
237460 158763 443
267754 924912 525
864634 897577 445
1718 617148 470
51895 418431 449
693953 202250 509
182693 567439 470
890944 837636 525
228022 887974 525
49564 879779 525
928445 878061 476
986868 704536 525
222911 22919 386
62650 351111 443
604350 235073 470
140066 829851 509
472877 473440 307
730279 98867 509
366498 162672 443
598172 16216 470
63157 496525 449
295006 703085 509
