954506 723224 525
862603 591273 525
311269 458886 449
880665 139459 525
974229 763700 525
701311 502810 509
678556 685433 380
629578 941711 525
678088 37183 509
203287 646649 509
681598 558460 509
808298 955402 525
281075 687314 509
406610 406664 237
540943 680985 509
308780 187178 443
358133 952844 525
871413 219790 525
125133 568851 470
484463 495484 426
100458 459674 449
788956 446205 509
365133 947575 525
839471 230207 525
704221 866944 525
948483 149504 525
233340 904455 525
188962 295400 443
822326 858107 525
978342 257437 525
162712 117893 383
976813 209069 525
91219 554121 470
864331 590982 525
166591 339659 443
400090 193287 443
297195 356758 441
173940 278099 443
661036 369909 509
848141 806353 525
129548 253519 443
975760 115669 525
983539 205724 525
114915 474441 449
652544 83538 509
44436 83312 351
456325 76342 449
985095 481721 525
362606 416635 449
309536 171341 443
455490 506650 444
674290 899245 525
623032 409333 470
826856 685181 504
839373 355897 525
674495 599532 509
848079 949814 507
841774 856865 419
716395 95031 509
904289 463751 525
466487 987424 525
117617 50812 354
452833 774626 509
204945 850208 525
476641 629795 509
601021 560485 434
432003 632340 509
965593 216951 525
641223 861048 525
947152 848877 507
341387 579665 470
609506 581162 434
253909 405621 441
422987 179099 449
99934 562341 470
852300 243932 525
488560 700083 509
802207 730214 468
609511 287689 470
323463 439801 449
46905 348998 443
183300 838934 525
822153 153273 509
947839 92803 525
553690 129758 470
760821 377377 509
241899 45674 443
294448 829213 509
803180 694003 504
464343 755685 509
262270 48037 443
221696 144667 386
199203 706336 509
908587 510880 525
437163 979088 525
350468 698732 509
753843 231834 509
453842 141087 449
395482 371111 436
520965 158622 470
398463 297452 441
530840 783060 509
879859 967609 507
39684 486329 449
776054 736872 468
433157 514305 470
461172 971989 525
710769 982410 525
638979 442783 509
596207 886786 525
361651 354453 410
858988 366821 525
698531 369191 509
21641 7105 279
310258 763444 509
927331 180326 525
970579 183170 525
572870 321913 470
870386 744715 525
644033 363855 509
587569 732647 509
781761 81527 509
802266 322687 509
56754 448531 449
966698 245139 525
695427 615002 509
728196 417957 509
855421 390580 525
599907 574026 434
435444 452785 400
225827 5749 386
72080 917109 525
120411 712062 509
836970 47775 509
53167 840283 525
982187 49491 525
943922 168656 525
97868 770177 509
60401 606978 470
99513 386945 443
31243 225120 386
150940 580075 470
705917 287443 509
521223 343244 470
852683 916488 476
559509 589352 434
593442 390046 470
861012 747408 525
83115 973059 525
501458 270561 449
936324 257205 525
890872 796652 525
870700 746848 525
462069 944987 525
141181 376918 443
316367 778254 509
276245 999699 525
139916 736450 509
68708 378777 443
880401 828861 525
809536 213306 509
446732 81028 449
78849 882189 525
776469 676870 504
191215 506077 449
155678 841388 525
286508 634893 509
910881 202673 525
133850 154261 375
360654 834893 509
771670 707479 468
351614 751501 509
371617 921496 525
15378 867497 525
263364 683677 509
565912 987066 525
139098 902121 525
131766 366180 443
430494 69636 449
760944 429277 509
882241 600175 525
419879 649477 509
323933 573417 470
674554 993467 525
207991 948533 525
120081 420805 449
565778 45808 470
900279 710645 525
968326 828867 525
105585 361409 443
887642 319301 525
296725 79683 443
643746 495513 509
262129 431616 449
563935 660562 509
620448 52759 470
700349 808780 504
319484 126709 443
173312 255295 443
854060 895417 445
94581 208870 383
293427 107895 443
329954 807423 509
620951 711586 509
507799 585106 470
235815 72963 443
846437 807100 525
633350 894903 525
395300 385677 436
503014 569282 470
742291 592257 509
542928 316548 470
312167 228871 443
67550 366589 443
510436 948827 525
769524 894606 525
403136 423149 449
930988 987846 507
537165 964164 525
372307 813150 509
971989 749418 525
928935 252764 525
141215 42037 354
28518 963725 525
738892 724169 424
46760 79401 351
808827 842672 525
912290 890144 476
695875 142394 509
341203 827845 509
106698 949227 525
62740 90227 351
615299 13775 470
560105 393645 470
296587 507631 449
121362 319012 443
357587 265811 441
262853 947556 525
263809 974934 525
114767 271053 443
967086 219622 525
277172 282229 389
327965 794540 509
357613 565334 470
461857 684233 509
454180 452326 369
610171 583478 434
874807 721605 525
62311 766773 509
849142 576234 525
213847 869722 525
106172 489584 449
5733 125866 354
358289 729582 509
88140 645928 509
959389 58936 525
582555 632008 509
807879 189761 509
268542 242401 407
249827 760970 509
15420 78218 351
489274 874598 525
937798 565949 525
158012 803035 509
736820 70601 509
194249 527030 470
907488 545444 525
536345 44495 470
622189 338807 470
44990 86669 351
440563 589898 470
924479 136481 525
763199 377037 509
738622 155648 509
859699 556144 525
698197 571806 509
444121 91839 449
844307 647265 525
920114 296806 525
737959 876984 525
937312 799118 525
187312 426802 449
921021 747424 525
235056 210987 443
84880 424599 449
293129 144424 443
692751 35278 509
633907 635048 310
65891 908925 525
984509 490320 525
26328 383200 443
75352 211943 383
268554 351894 441
916910 728214 525
160521 292728 443
613184 112213 470
456756 314976 449
907088 780813 525
720599 616692 509
198385 945162 525
