670998 35664 509
513084 555790 452
960052 463230 525
95486 107588 354
61397 838060 525
602658 234617 470
940022 816368 525
645306 423265 509
526993 484120 470
388448 443910 449
24351 383165 443
859641 790626 525
59871 739706 509
989142 506504 525
756256 245530 509
814814 657605 504
204569 475177 449
138299 728238 509
691295 862364 525
587039 141893 470
376629 864255 525
824155 895292 525
381579 604719 470
593754 74935 470
115563 382226 443
560514 45096 470
598807 411761 470
900695 786732 525
196484 296001 443
543530 812216 509
566510 277124 470
115793 131003 344
537247 11789 470
511931 280907 449
168807 309906 443
748315 45975 509
86208 240937 443
346330 616255 470
422651 408562 449
249704 280051 407
956560 853942 507
563085 6590 470
115241 215321 383
428768 420404 418
927818 783269 525
610456 861736 525
317868 953703 525
287660 792971 509
199143 792132 509
219813 254495 443
770378 26051 509
559067 344805 470
909873 372235 525
503685 548165 470
783903 104713 509
584132 182642 470
821687 121119 509
696468 997166 525
308450 295268 371
106949 971475 525
253647 666387 509
560143 221386 470
446063 379643 449
242651 652426 509
855944 158497 525
365576 800294 509
811014 971984 525
189338 371438 443
723546 744395 424
380892 273547 441
736079 9102 509
777525 995366 525
314604 181341 443
142456 451831 449
703493 877844 525
421057 268673 449
413605 17409 449
986981 372564 525
353530 940023 525
806067 526502 509
771666 246021 509
759627 868973 525
925245 772413 525
178707 428092 449
675328 96509 509
519330 279627 470
246546 186964 443
751340 550989 509
333120 354322 441
418083 666767 509
89521 353651 443
40211 670822 509
493682 132956 449
648771 680787 442
992842 115963 525
619216 724516 509
984363 343626 525
720223 972911 525
416858 198832 449
869814 713312 525
88443 605441 470
833373 479618 509
359864 369992 410
862824 102972 525
595043 393426 470
414874 118396 449
114631 483084 449
695136 831315 504
491621 162057 449
483663 869347 525
247958 483327 449
906631 974603 507
712920 840359 525
595197 656179 509
125990 273535 443
289568 393775 441
301078 354240 441
789469 299942 509
350406 795154 509
875123 950134 507
210677 521227 470
77554 552804 470
433392 601980 470
945401 322686 525
637070 771788 504
705735 827597 468
744591 164264 509
808657 984603 525
359105 281192 441
209197 453920 449
794487 955376 525
193399 55835 383
173876 78543 383
525095 239271 470
296161 53922 443
213940 114355 383
807819 510329 509
284439 718702 509
138995 530849 470
192572 338500 443
174749 40697 383
194491 897528 525
848408 338839 525
482391 810 449
220757 558176 470
813378 805612 406
183061 873223 525
682542 325069 509
484817 88100 449
133499 524663 470
81904 176305 383
797582 708718 468
161410 867415 525
300915 951552 525
703688 345544 509
463881 795973 509
312275 544061 470
83130 776605 509
807057 243131 509
796035 807903 468
384227 472327 449
752850 197101 509
620316 625508 385
143421 6307 375
595691 827867 509
7488 953016 525
746748 841796 525
180693 496590 449
782771 222127 509
708665 591753 509
508005 422137 444
985060 196161 525
183783 7973 383
281497 27843 443
729614 696043 504
463858 811613 509
460493 649434 509
749057 204726 509
329709 772151 509
286095 696108 509
756056 749476 424
246082 959432 525
402589 752881 509
719454 957948 525
954001 466080 525
223120 897816 525
869191 691438 525
98355 164842 383
466708 695563 509
413107 873968 525
162035 627981 509
894497 571326 525
415040 997834 525
207472 947363 525
663350 804463 504
743451 293801 509
37286 858555 525
70353 473 340
469556 184287 449
245578 299894 407
989982 358636 525
615475 211040 470
905567 537954 525
575019 171286 470
677315 418265 509
809925 674334 504
385125 822774 509
66303 275290 443
954003 540370 525
57134 269684 443
218018 641421 509
844455 688727 525
73481 688848 509
26990 875305 525
765210 548263 509
463006 300285 449
866096 577678 525
964832 679767 525
696724 540803 509
235147 772560 509
168201 796696 509
220097 387129 443
991380 115369 525
697319 98017 509
306834 508950 449
876338 566029 525
749291 204982 509
226225 838490 525
536355 504689 470
908735 5225 525
908517 238520 525
730795 133636 509
430047 804185 509
982201 914762 507
737171 974167 525
937749 449472 525
654053 142648 509
112285 73181 354
158685 582141 470
560517 908095 525
249896 12743 443
358477 414544 449
164767 725712 509
622140 585675 447
853095 627505 525
789248 194547 509
349561 277190 441
334078 652918 509
578691 744415 509
382236 431464 449
